/* XPM */
static char *frameABR[] = {
/* width height ncolors chars_per_pixel */
"15 15 5 1",
/* colors */
"  c #494949",
". c #4C4C4C",
"X c #191919",
"o c #333333",
"O c #353535",
/* pixels */
"ooooooooooooO X",
"ooooooooooooO X",
"ooooooooooooO X",
"ooooooooooooO X",
"ooooooooooooO X",
"ooooooooooooO X",
"ooooooooooooO X",
"ooooooooooooO X",
"ooooooooooooO X",
"ooooooooooooO X",
"ooooooooooooO X",
"ooooooooooooO X",
"ooooooooooooO X",
"............. X",
"XXXXXXXXXXXXXXX"
};
