/* XPM */
static char *titleAP[] = {
/* width height ncolors chars_per_pixel */
"1 24 3 1",
/* colors */
"  c #191919",
". c #333333",
"X c #353535",
/* pixels */
"X",
".",
".",
".",
".",
".",
".",
".",
".",
".",
".",
".",
".",
".",
".",
".",
".",
".",
".",
".",
".",
".",
".",
" "
};
