/* XPM */
static char *titleIT[] = {
/* width height ncolors chars_per_pixel */
"1 24 3 1",
/* colors */
"  c #262626",
". c #282828",
"X c #191919",
/* pixels */
".",
" ",
" ",
" ",
" ",
" ",
" ",
" ",
" ",
" ",
" ",
" ",
" ",
" ",
" ",
" ",
" ",
" ",
" ",
" ",
" ",
" ",
" ",
"X"
};
